…
``` r
mr_trash_wheel = read_excel(
  "202309 Trash Wheel Collection Data.xlsx", 
  sheet="Mr. Trash Wheel", range = cell_cols("A:N"))|>
  janitor::clean_names()|>
  filter(row_number() <= n()-1)|>
  mutate(homes_powered=weight_tons*500/30)

mr_trash_wheel
```

    ## # A tibble: 584 × 14
    ##    dumpster month year  date                weight_tons volume_cubic_yards
    ##       <dbl> <chr> <chr> <dttm>                    <dbl>              <dbl>
    ##  1        1 May   2014  2014-05-16 00:00:00        4.31                 18
    ##  2        2 May   2014  2014-05-16 00:00:00        2.74                 13
    ##  3        3 May   2014  2014-05-16 00:00:00        3.45                 15
    ##  4        4 May   2014  2014-05-17 00:00:00        3.1                  15
    ##  5        5 May   2014  2014-05-17 00:00:00        4.06                 18
    ##  6        6 May   2014  2014-05-20 00:00:00        2.71                 13
    ##  7        7 May   2014  2014-05-21 00:00:00        1.91                  8
    ##  8        8 May   2014  2014-05-28 00:00:00        3.7                  16
    ##  9        9 June  2014  2014-06-05 00:00:00        2.52                 14
    ## 10       10 June  2014  2014-06-11 00:00:00        3.76                 18
    ## # ℹ 574 more rows
    ## # ℹ 8 more variables: plastic_bottles <dbl>, polystyrene <dbl>,
    ## #   cigarette_butts <dbl>, glass_bottles <dbl>, plastic_bags <dbl>,
    ## #   wrappers <dbl>, sports_balls <dbl>, homes_powered <dbl>

Professor Trash Wheel with a similar process

``` r
professor_trash_wheel = read_excel(
  "202309 Trash Wheel Collection Data.xlsx", 
  sheet="Professor Trash Wheel", range = cell_cols("A:M"))|>
  janitor::clean_names()|>
  filter(row_number() <= n()-1)|>
  mutate(homes_powered=weight_tons*500/30)

professor_trash_wheel
```

    ## # A tibble: 106 × 13
    ##    dumpster month     year date                weight_tons volume_cubic_yards
    ##       <dbl> <chr>    <dbl> <dttm>                    <dbl>              <dbl>
    ##  1        1 January   2017 2017-01-02 00:00:00        1.79                 15
    ##  2        2 January   2017 2017-01-30 00:00:00        1.58                 15
    ##  3        3 February  2017 2017-02-26 00:00:00        2.32                 18
    ##  4        4 February  2017 2017-02-26 00:00:00        3.72                 15
    ##  5        5 February  2017 2017-02-28 00:00:00        1.45                 15
    ##  6        6 March     2017 2017-03-30 00:00:00        1.71                 15
    ##  7        7 April     2017 2017-04-01 00:00:00        1.82                 15
    ##  8        8 April     2017 2017-04-20 00:00:00        2.37                 15
    ##  9        9 May       2017 2017-05-10 00:00:00        2.64                 15
    ## 10       10 May       2017 2017-05-26 00:00:00        2.78                 15
    ## # ℹ 96 more rows
    ## # ℹ 7 more variables: plastic_bottles <dbl>, polystyrene <dbl>,
    ## #   cigarette_butts <dbl>, glass_bottles <dbl>, plastic_bags <dbl>,
    ## #   wrappers <dbl>, homes_powered <dbl>

Gwynnda with a similar process

``` r
gwynnda_trash_wheel = read_excel(
  "202309 Trash Wheel Collection Data.xlsx", 
  sheet="Gwynnda Trash Wheel", range = cell_cols("A:L"))|>
  janitor::clean_names()|>
  filter(row_number() <= n()-2)|>
  mutate(homes_powered=weight_tons*500/30)

gwynnda_trash_wheel
```

    ## # A tibble: 155 × 12
    ##    dumpster month   year date                weight_tons volume_cubic_yards
    ##       <dbl> <chr>  <dbl> <dttm>                    <dbl>              <dbl>
    ##  1        1 July    2021 2021-07-03 00:00:00        0.93                 15
    ##  2        2 July    2021 2021-07-07 00:00:00        2.26                 15
    ##  3        3 July    2021 2021-07-07 00:00:00        1.62                 15
    ##  4        4 July    2021 2021-07-16 00:00:00        1.76                 15
    ##  5        5 July    2021 2021-07-30 00:00:00        1.53                 15
    ##  6        6 August  2021 2021-08-11 00:00:00        2.06                 15
    ##  7        7 August  2021 2021-08-14 00:00:00        1.9                  15
    ##  8        8 August  2021 2021-08-16 00:00:00        2.16                 15
    ##  9        9 August  2021 2021-08-16 00:00:00        2.6                  15
    ## 10       10 August  2021 2021-08-17 00:00:00        3.21                 15
    ## # ℹ 145 more rows
    ## # ℹ 6 more variables: plastic_bottles <dbl>, polystyrene <dbl>,
    ## #   cigarette_butts <dbl>, plastic_bags <dbl>, wrappers <dbl>,
    ## #   homes_powered <dbl>
…
professor_trash_wheel=professor_trash_wheel |>
  mutate(trashwheel="Professor Trash Wheel")

gwynnda_trash_wheel=gwynnda_trash_wheel |>
  mutate(trashwheel="Gwynnda Trash Wheel")

mr_trash_wheel_tidy = 
  bind_rows(mr_trash_wheel, professor_trash_wheel, gwynnda_trash_wheel) |>
  janitor::clean_names() |>
  select(trashwheel, everything())

mr_trash_wheel_tidy
```

    ## # A tibble: 845 × 15
    ##    trashwheel      dumpster month  year date                weight_tons
    ##    <chr>              <dbl> <chr> <dbl> <dttm>                    <dbl>
    ##  1 Mr. Trash Wheel        1 May    2014 2014-05-16 00:00:00        4.31
    ##  2 Mr. Trash Wheel        2 May    2014 2014-05-16 00:00:00        2.74
    ##  3 Mr. Trash Wheel        3 May    2014 2014-05-16 00:00:00        3.45
    ##  4 Mr. Trash Wheel        4 May    2014 2014-05-17 00:00:00        3.1 
    ##  5 Mr. Trash Wheel        5 May    2014 2014-05-17 00:00:00        4.06
    ##  6 Mr. Trash Wheel        6 May    2014 2014-05-20 00:00:00        2.71
    ##  7 Mr. Trash Wheel        7 May    2014 2014-05-21 00:00:00        1.91
    ##  8 Mr. Trash Wheel        8 May    2014 2014-05-28 00:00:00        3.7 
    ##  9 Mr. Trash Wheel        9 June   2014 2014-06-05 00:00:00        2.52
    ## 10 Mr. Trash Wheel       10 June   2014 2014-06-11 00:00:00        3.76
    ## # ℹ 835 more rows
    ## # ℹ 9 more variables: volume_cubic_yards <dbl>, plastic_bottles <dbl>,
    ## #   polystyrene <dbl>, cigarette_butts <dbl>, glass_bottles <dbl>,
    ## #   plastic_bags <dbl>, wrappers <dbl>, sports_balls <dbl>, homes_powered <dbl>
…
    ## Rows: 483 Columns: 6
    ## ── Column specification ────────────────────────────────────────────────────────
    ## Delimiter: ","
    ## chr (1): Age at onset
    ## dbl (5): ID, Current Age, Sex, Education, apoe4
    ## 
    ## ℹ Use `spec()` to retrieve the full column specification for this data.
    ## ℹ Specify the column types or set `show_col_types = FALSE` to quiet this message.

``` r
mci_baseline
```

    ## # A tibble: 97 × 6
    ##       id current_age sex    education apoe4             age_at_onset
    ##    <dbl>       <dbl> <fct>      <dbl> <fct>                    <dbl>
    ##  1     3        62.5 Male          16 APOE4 carrier             66.8
    ##  2     5        66   Male          16 APOE4 non-carrier         68.7
    ##  3     7        66.5 Male          18 APOE4 non-carrier         74  
    ##  4    13        63.1 Male          12 APOE4 carrier             69  
    ##  5    14        58.4 Female        20 APOE4 non-carrier         66.2
    ##  6    18        67.8 Male          16 APOE4 non-carrier         69.8
    ##  7    22        67.3 Female        20 APOE4 carrier             74.6
    ##  8    26        64.8 Female        20 APOE4 carrier             71.1
    ##  9    30        66.3 Female        12 APOE4 non-carrier         73.1
    ## 10    39        68.3 Female        16 APOE4 carrier             70.2
    ## # ℹ 87 more rows
…
    ## Warning: There were 2 warnings in `mutate()`.
    ## The first warning was:
    ## ℹ In argument: `baseline = as.numeric(baseline)`.
    ## Caused by warning:
    ## ! NAs introduced by coercion
    ## ℹ Run `dplyr::last_dplyr_warnings()` to see the 1 remaining warning.

``` r
mci_amyloid  
```

    ## # A tibble: 1,948 × 4
    ##       id baseline  time amyloid
    ##    <dbl>    <dbl> <dbl>   <dbl>
    ##  1     1    0.111     2  NA    
    ##  2     1    0.111     4   0.109
    ##  3     1    0.111     6   0.105
    ##  4     1    0.111     8   0.107
    ##  5     2    0.107     2   0.109
    ##  6     2    0.107     4   0.109
    ##  7     2    0.107     6   0.106
    ##  8     2    0.107     8   0.107
    ##  9     3    0.106     2   0.109
    ## 10     3    0.106     4   0.106
    ## # ℹ 1,938 more rows
…
According to the results, it’s apparent that there are some participants
appear in only the baseline dataset and there are some participants
appear in only the amyloid dataset.

Combine the demographic and biomarker datasets so that only participants
who appear in both datasets are retained, and briefly describe the
resulting dataset. Export the result as a CSV to your data directory.

``` r
combined_data <- inner_join(mci_baseline, mci_amyloid, by = "id")

combined_data
```

    ## # A tibble: 376 × 9
    ##       id current_age sex   education apoe4   age_at_onset baseline  time amyloid
    ##    <dbl>       <dbl> <fct>     <dbl> <fct>          <dbl>    <dbl> <dbl>   <dbl>
    ##  1     3        62.5 Male         16 APOE4 …         66.8    0.106     2   0.109
    ##  2     3        62.5 Male         16 APOE4 …         66.8    0.106     4   0.106
    ##  3     3        62.5 Male         16 APOE4 …         66.8    0.106     6  NA    
    ##  4     3        62.5 Male         16 APOE4 …         66.8    0.106     8   0.106
    ##  5     5        66   Male         16 APOE4 …         68.7    0.108     2   0.112
    ##  6     5        66   Male         16 APOE4 …         68.7    0.108     4   0.115
    ##  7     5        66   Male         16 APOE4 …         68.7    0.108     6   0.107
    ##  8     5        66   Male         16 APOE4 …         68.7    0.108     8   0.106
    ##  9     7        66.5 Male         18 APOE4 …         74      0.112     2  NA    
    ## 10     7        66.5 Male         18 APOE4 …         74      0.112     4   0.104
    ## # ℹ 366 more rows
…
